{
  "project_info": {
    "project_number": "652055155817",
    "project_id": "kilomania-virtual",
    "storage_bucket": "kilomania-virtual.appspot.com"
  },
  "client": [
    {
      "client_info": {
        "mobilesdk_app_id": "1:652055155817:android:ccf0ea1af06119c81dfef8",
        "android_client_info": {
          "package_name": "com.slifebr.kilomania_virtual"
        }
      },
      "oauth_client": [
        {
          "client_id": "652055155817-ap5n4con7l0lvpm3ltp589gt1gk783md.apps.googleusercontent.com",
          "client_type": 3
        }
      ],
      "api_key": [
        {
          "current_key": "AIzaSyAOhha3FBORf7v6D3Z_nfbTzzYHtANtnJ4"
        }
      ],
      "services": {
        "appinvite_service": {
          "other_platform_oauth_client": [
            {
              "client_id": "652055155817-ap5n4con7l0lvpm3ltp589gt1gk783md.apps.googleusercontent.com",
              "client_type": 3
            }
          ]
        }
      }
    }
  ],
  "configuration_version": "1"
}